<?xml version="1.0" standalone="no"?>
<!DOCTYPE svg PUBLIC "-//W3C//DTD SVG 1.1//EN" "http://www.w3.org/Graphics/SVG/1.1/DTD/svg11.dtd" >
<svg xmlns="http://www.w3.org/2000/svg">
<metadata>Generated by IcoMoon</metadata>
<defs>
<font id="icomoon" horiz-adv-x="1024">
<font-face units-per-em="1024" ascent="960" descent="-64" />
<missing-glyph horiz-adv-x="1024" />
<glyph unicode="&#x20;" d="" horiz-adv-x="512" />
<glyph unicode="&#xe600;" d="M1024 460.928c-0.032 35.872-3.392 71.808-9.792 104.032-6.848 33.408-19.552 74.496-42.56 94.272l-0.096 31.424c-0.256 49.248-40.384 89.312-89.92 89.312l-569.568-1.92c-172.576-0.576-312.544-126.048-312.064-279.68l0.32-82.432c0.544-159.744 146.784-299.904 312.992-299.904l570.432 1.984c49.472 0.192 89.568 40.576 89.376 89.952l-0.192 54.848c15.68 13.536 28.192 38.464 37.312 74.4 9.12 36.16 13.888 78.912 13.76 123.712zM969.984 347.392c-9.664-38.112-21.536-52.448-26.464-54.72l-12.16-5.568 0.256-79.264c0.096-26.528-21.44-48.16-48.032-48.288l-569.408-2.016-0.864-20.768v20.768c-144.16 0-271.008 120.8-271.488 258.528l-0.32 82.432c-0.448 146.496 140.16 237.6 270.688 238.016l569.856 1.92c26.336 0 47.872-21.536 48-47.968l0.192-55.68 12.128-5.504c6.208-2.848 20.736-21.664 31.136-72.544 5.824-29.504 8.928-62.656 8.992-95.936 0.096-41.376-4.224-80.576-12.512-113.408zM675.904 396.384c30.528-14.016 62.88-29.312 63.424-29.568 4.864-2.304 10.048-3.424 15.136-3.424 13.28 0 26.048 7.52 32.096 20.32 8.352 17.76 0.8 38.88-16.896 47.264-1.344 0.608-14.208 6.688-31.040 14.528-13.824-23.392-36.128-41.248-62.72-49.12v0zM301.344 363.424c5.056 0 10.24 1.088 15.168 3.424 0.48 0.256 32.128 15.168 62.368 29.088-27.040 7.488-49.76 25.12-63.968 48.544-15.712-7.328-27.52-12.864-28.768-13.472-17.728-8.384-25.312-29.568-16.96-47.264 6.080-12.8 18.848-20.32 32.16-20.32v0zM745.248 498.816c0-54.304-44-98.336-98.304-98.336s-98.336 44-98.336 98.336 44 98.304 98.336 98.304 98.304-43.968 98.304-98.304v0zM508.064 498.816c0-54.304-44-98.336-98.336-98.336-54.304 0-98.336 44-98.336 98.336s44 98.304 98.336 98.304c54.336 0.032 98.336-43.968 98.336-98.304v0zM790.592 335.872c-0.064 0.128-0.16 0.192-0.256 0.256l-9.184 11.040-8.416 8.352c-6.016-3.168-12.736-4.992-19.712-4.992-6.304 0-12.448 1.344-18.208 4.064-0.512 0.256-40 18.944-72.864 33.888l-15.040-13.76-19.84 18.688c-4.128 0.704-8.16 1.568-12.064 2.72-8.224-3.744-17.984-8.8-28.064-14.752 0.736 4.32 0.704 8.736-0.128 12.992 4.48 2.624 8.864 5.024 13.184 7.328-23.136 10.56-41.888 29.024-52.928 51.936-6.080-3.744-12.064-7.52-17.792-11.36-8.32 4.768-16.416 9.312-22.688 12.896-10.688-23.104-29.216-41.792-52.128-52.736 18.784-9.76 64.48-35.104 77.152-44.032 2.752-1.952 5.76-3.296 8.832-4.352v-185.088c0-15.872 2.528-31.040 7.296-44.832-0.096-1.472-0.224-2.944-0.224-4.448v-41.6h0.288c-0.032-0.576-0.192-1.184-0.192-1.76l0.032-365.568c0-24.896 20.16-45.12 45.12-45.12 24.896 0 45.12 20.192 45.12 45.12l-0.032 365.568c0 0.608-0.16 1.184-0.192 1.76h6.784c0-0.576-0.192-1.152-0.192-1.76v-365.536c0-24.928 20.16-45.12 45.088-45.152 24.896 0 45.12 20.192 45.12 45.12l0.032 365.568c0 0.608-0.16 1.184-0.192 1.76h1.12c3.36-6.592 8.672-12.32 15.68-16.128 5.824-3.136 12.064-4.64 18.24-4.64 13.536 0 26.656 7.232 33.568 19.936 69.216 127.136 31.52 210.848-12.32 258.624v0zM750.816 145.216l2.208 113.12c13.248-24.96 19.104-60.512-2.208-113.12v0zM439.776 396.64c-3.456-1.056-6.944-1.952-10.496-2.624l-20.384-19.264-15.072 13.76c-32.864-14.976-72.32-33.632-72.864-33.856-5.76-2.72-11.84-4.096-18.176-4.096-7.008 0-13.728 1.824-19.744 4.992l-14.624-15.904c-0.448-0.448-0.96-0.768-1.344-1.216-43.84-47.84-81.536-131.52-12.352-258.656 6.944-12.736 20.032-19.968 33.6-19.968 6.144 0 12.384 1.504 18.176 4.672 6.080 3.296 10.784 8.128 14.144 13.632h0.672c0-0.352-0.096-0.704-0.096-1.056l0.032-365.568c0-24.896 20.192-45.088 45.088-45.088 24.928 0 45.152 20.192 45.152 45.088v365.536c0 0.352-0.128 0.704-0.128 1.056h6.624c0-0.352-0.128-0.704-0.128-1.056l-0.032-365.568c0-24.896 20.16-45.088 45.12-45.088 24.928 0 45.12 20.192 45.12 45.088l0.032 365.568c0 0.352-0.128 0.704-0.128 1.056h0.256v41.568c0 1.536-0.064 3.008-0.224 4.48 4.8 13.824 7.328 28.96 7.328 44.832v190.368c-8.704 0.064-17.056 2.72-24.192 7.776-17.312 12.224-37.056 23.168-51.36 29.536v0zM302.432 256.352v-18.56l2.048-84c-17.344 46.336-13.184 78.944-2.048 102.56v0z" />
<glyph unicode="&#xe601;" d="M755.68 257.568c-0.704 0-1.344-0.064-2.048-0.16l-122.144-15.808c-6.272-0.8-10.656 6.080-7.264 11.424 1.856 2.848 3.616 5.728 5.408 8.608 4.736 7.648-1.6 17.856-10.336 17.856-0.608 0-1.184-0.064-1.824-0.16l-231.392-34.784c-5.92-0.896-9.888-5.92-9.408-11.936 0.192-2.688 1.28-5.216 3.040-7.104 2.048-2.24 4.864-3.488 7.968-3.488 0.608 0 1.184 0.032 1.824 0.16l190.784 28.672c6.528 0.992 10.976-6.368 7.168-11.744-1.248-1.696-2.496-3.424-3.744-5.12-3.424-4.672-2.624-12.48 1.344-16.512 2.048-2.080 4.64-3.2 7.36-3.2 0.288 0 0.64 0 0.928 0.064h0.096l164.768 20.96c2.816 0.448 5.312 2.080 6.944 4.64 1.792 2.784 2.432 6.208 1.632 9.28-1.216 5.088-5.568 8.352-11.104 8.352v0zM343.84 246.432c-1.6-2.144 0.832-4.928 3.168-3.68 26.656 14.56 53.44 21.28 68.16 22.88 5.28 0.544 9.632 4.384 10.784 9.536 7.072 31.328 51.104 103.456 51.104 103.456l-59.008 43.392c0 0-55.712-63.264-83.552-79.392-4.576-2.624-7.072-7.904-6.016-13.12 2.848-14.464 4.928-41.408-1.056-71.072-0.48-2.592 2.88-4.064 4.416-1.952l71.872 97.568c2.592 3.488 7.52 4.064 10.848 1.248l0.448-0.384c2.976-2.528 3.52-6.944 1.184-10.080l-72.352-98.4zM425.216 435.328l62.4-45.92c5.472-4.032 13.216-2.944 17.312 2.528 12.736 16.96 41.408 50.208 77.248 60.064l85.44 118.368c4.064 5.504 2.88 13.312-2.624 17.408l-105.248 77.44c-5.504 4.064-13.312 2.88-17.408-2.624l-85.344-118.304c1.248-37.152-22.016-74.432-34.432-91.616-4-5.536-2.816-13.248 2.656-17.344v0zM1024 460.896c-0.032 35.872-3.392 71.808-9.792 104.032-6.848 33.408-19.552 74.496-42.56 94.272l-0.096 31.424c-0.256 49.248-40.384 89.312-89.92 89.312l-569.568-1.888c-172.576-0.576-312.544-126.048-312.064-279.68l0.32-82.432c0.512-159.744 146.784-299.904 312.992-299.904l570.432 1.984c49.472 0.192 89.568 40.576 89.376 89.92l-0.192 54.88c15.68 13.536 28.192 38.464 37.312 74.4 9.152 36.128 13.888 78.912 13.76 123.68zM969.984 347.392c-9.664-38.112-21.536-52.448-26.464-54.72l-12.16-5.568 0.256-79.296c0.096-26.496-21.44-48.128-48.032-48.256l-569.408-2.016-0.864-20.768v20.768c-144.16 0-271.008 120.8-271.488 258.528l-0.32 82.432c-0.448 146.496 140.16 237.6 270.688 238.016l569.856 1.92c26.336 0 47.872-21.536 48-47.968l0.192-55.68 12.128-5.504c6.208-2.848 20.736-21.664 31.136-72.544 5.824-29.504 8.928-62.656 8.992-95.936 0.096-41.376-4.224-80.576-12.512-113.408z" />
<glyph unicode="&#xe602;" d="M972.8 499.2h-921.6c-28.256 0-51.2-22.944-51.2-51.2s22.944-51.2 51.2-51.2h921.6c28.16 0 51.2 22.944 51.2 51.2s-23.040 51.2-51.2 51.2zM51.2 704h921.6c28.16 0 51.2 22.944 51.2 51.2s-23.040 51.2-51.2 51.2h-921.6c-28.256 0-51.2-22.944-51.2-51.2s22.944-51.2 51.2-51.2zM972.8 192h-921.6c-28.256 0-51.2-23.040-51.2-51.2s22.944-51.2 51.2-51.2h921.6c28.16 0 51.2 23.040 51.2 51.2s-23.040 51.2-51.2 51.2z" />
<glyph unicode="&#xe603;" d="M647.232 824.736c0 74.592-60.672 135.264-135.232 135.264-74.592 0-135.232-60.672-135.232-135.264 0-74.56 60.64-135.232 135.232-135.232s135.232 60.704 135.232 135.232zM647.232 441.376c0 74.592-60.672 135.264-135.232 135.264-74.592 0-135.232-60.672-135.232-135.264s60.64-135.264 135.232-135.264c74.592 0 135.232 60.672 135.232 135.264zM647.232 71.232c0 74.56-60.672 135.264-135.232 135.264-74.592 0-135.232-60.672-135.232-135.264 0-74.56 60.64-135.232 135.232-135.232s135.232 60.672 135.232 135.232z" />
<glyph unicode="&#xe604;" d="M769.28 495.424c-7.072 7.84-83.328 69.824-96.96 73.824-5.92 1.728-11.904 2.784-18.048 3.264-28.512 2.080-59.936-6.848-79.744-28.192-1.728-1.856-2.72-2.912-2.72-2.912s0.736 1.248 2.016 3.456c6.112 10.304 15.008 19.264 24.544 26.4 4.384 3.296 9.056 6.24 13.92 8.832 1.344 0.704 13.728 7.392 14.56 6.528l-6.752 7.136c-10.88 10.88-22.656 20.256-38.656 20.256-19.872 0-36.832-12.32-43.744-29.728-5.856 4.352-15.168 7.168-25.664 7.168s-19.808-2.816-25.664-7.168c-6.912 17.408-23.872 29.728-43.744 29.728-16.032 0-27.776-9.376-38.656-20.256l-6.752-7.136c0.832 0.864 13.216-5.824 14.56-6.528 4.864-2.56 9.504-5.536 13.888-8.832 9.536-7.168 18.432-16.096 24.544-26.4l2.048-3.456c0 0-0.992 1.056-2.72 2.912-19.808 21.344-51.264 30.272-79.744 28.192-6.176-0.448-12.128-1.536-18.048-3.264-13.632-4-89.888-65.984-96.96-73.824-20.448-22.656-32.928-52.672-32.928-85.632 0-70.592 57.216-127.776 127.776-127.776 64.576 0 117.92 47.872 126.56 110.080 10.048-7.328 22.464-11.648 35.84-11.648 13.408 0 25.792 4.32 35.84 11.648 8.64-62.176 61.984-110.080 126.56-110.080 70.592 0 127.776 57.216 127.776 127.776 0 32.96-12.48 62.976-32.928 85.632v0zM346.752 329.568c-42.56 0-77.056 34.496-77.056 77.056s34.496 77.056 77.056 77.056c42.56 0 77.056-34.496 77.056-77.056s-34.496-77.056-77.056-77.056v0zM512 413.856c-11.232 0-20.32 9.088-20.32 20.32s9.088 20.32 20.32 20.32c11.232 0 20.32-9.088 20.32-20.32s-9.088-20.32-20.32-20.32v0zM677.248 329.568c-42.56 0-77.056 34.496-77.056 77.056s34.496 77.056 77.056 77.056c42.56 0 77.056-34.496 77.056-77.056s-34.496-77.056-77.056-77.056v0zM1024 460.928c-0.032 35.872-3.392 71.808-9.792 104.032-6.816 33.408-19.552 74.496-42.56 94.272l-0.096 31.424c-0.256 49.248-40.416 89.312-89.92 89.312l-569.568-1.92c-172.576-0.576-312.544-126.048-312.064-279.68l0.32-82.432c0.512-159.776 146.784-299.904 312.992-299.904l570.432 1.984c49.472 0.192 89.568 40.576 89.376 89.952l-0.192 54.848c15.68 13.536 28.192 38.464 37.312 74.4 9.12 36.16 13.888 78.912 13.76 123.712zM969.984 347.392c-9.664-38.112-21.536-52.448-26.464-54.72l-12.16-5.568 0.256-79.264c0.096-26.528-21.44-48.16-48.032-48.288l-569.408-2.016-0.864-20.768v20.768c-144.16 0-271.008 120.8-271.488 258.528l-0.32 82.432c-0.448 146.496 140.16 237.6 270.688 238.016l569.856 1.92c26.336 0 47.872-21.536 48-47.968l0.192-55.68 12.128-5.504c6.24-2.848 20.736-21.664 31.136-72.544 5.824-29.504 8.928-62.656 8.992-95.936 0.096-41.376-4.224-80.576-12.512-113.408z" />
<glyph unicode="&#xe605;" d="M338.496 274.816c18.272-23.744 55.968-25.152 84.256-3.456 11.584 8.96 19.584 20.288 23.968 32.224 2.496 5.024 4.192 12.16 4.192 20.416v182.56l219.904 41.504v-96.384c0-33.984-25.984-41.76-35.2-43.552l-2.368-0.448-1.056-0.128h0.128c-10.88-2.048-21.856-6.56-31.648-14.080-28.384-21.824-36.512-58.72-18.24-82.432 18.368-23.776 56.096-25.28 84.32-3.488 14.336 11.008 23.52 25.888 26.624 41.056 1.056 3.584 1.888 7.648 1.888 12.192v237.184l-0.352 4.192 0.352 2.272v24.48c0 13.472-10.976 21.12-24.48 17.088l-219.904-41.664c-13.472-4.064-24.48-18.368-24.48-31.872v-24.448l0.256-0.864-0.256-2.144v-129.312c0-34.144-26.112-41.92-35.328-43.552l-1.312-0.352-2.016-0.256 0.224-0.128c-10.72-2.016-21.6-6.56-31.36-14.080-28.256-21.888-36.352-58.784-18.112-82.528v0zM1024 460.896c-0.032 35.872-3.392 71.808-9.792 104.032-6.848 33.408-19.552 74.496-42.56 94.272l-0.096 31.424c-0.256 49.248-40.384 89.312-89.92 89.312l-569.568-1.888c-172.576-0.576-312.544-126.048-312.064-279.68l0.32-82.432c0.512-159.744 146.784-299.904 312.992-299.904l570.432 1.984c49.472 0.192 89.568 40.576 89.376 89.952l-0.192 54.848c15.68 13.536 28.192 38.464 37.312 74.4 9.152 36.128 13.888 78.912 13.76 123.68zM969.984 347.392c-9.664-38.112-21.536-52.448-26.464-54.72l-12.16-5.568 0.256-79.264c0.096-26.528-21.44-48.16-48.032-48.288l-569.408-2.016-0.864-20.768v20.768c-144.16 0-271.008 120.8-271.488 258.528l-0.32 82.432c-0.448 146.496 140.16 237.6 270.688 238.016l569.856 1.92c26.336 0 47.872-21.536 48-47.968l0.192-55.68 12.128-5.504c6.208-2.848 20.736-21.632 31.136-72.544 5.824-29.504 8.928-62.656 8.992-95.936 0.096-41.376-4.224-80.576-12.512-113.408z" />
<glyph unicode="&#xe606;" d="M662.624 534.304c-4.672-4.736-10.368-8.288-16.768-10.56 2.592-14.112 7.296-27.328 14.24-38.88h65.952v49.376c-8.064-8.16-19.264-13.344-31.68-13.344-12.416 0.032-23.68 5.184-31.744 13.408v0zM345.024 462.432v-175.296c0-7.488 6.080-13.504 13.568-13.504h70.912c7.072 0 12.896 5.344 13.44 12.352 0.928 10.56 1.408 21.376 1.408 32.48 0 57.92-12.096 109.728-31.072 144h-68.256zM408.512 534.304c-8.128-8.224-19.36-13.408-31.744-13.408s-23.616 5.152-31.744 13.408v-49.44h65.984c6.88 11.552 11.68 24.736 14.176 38.88-6.304 2.272-12.096 5.824-16.672 10.56v0zM712.672 615.36h-354.24c-7.424 0-13.504-6.080-13.504-13.504v-36.48c0-17.568 14.24-31.744 31.744-31.744 17.568 0 31.808 14.24 31.808 31.808 0-17.568 14.176-31.808 31.744-31.808s31.808 14.24 31.808 31.808c0-17.568 14.176-31.808 31.744-31.808s31.744 14.24 31.744 31.808c0-17.568 14.24-31.808 31.744-31.808 17.568 0 31.808 14.24 31.808 31.808 0-17.568 14.176-31.808 31.744-31.808s31.744 14.24 31.744 31.808c0-17.568 14.24-31.808 31.808-31.808 17.504 0 31.744 14.24 31.744 31.808v36.416c0.064 7.424-6.016 13.504-13.44 13.504v0zM626.784 318.432c0-11.104 0.48-21.92 1.344-32.48 0.608-7.008 6.432-12.352 13.504-12.352h70.912c7.488 0 13.504 6.016 13.504 13.504v175.296h-68.224c-18.944-34.24-31.040-86.080-31.040-143.968v0zM1024 460.896c-0.032 35.872-3.392 71.808-9.792 104.064-6.848 33.408-19.552 74.496-42.56 94.272l-0.096 31.456c-0.256 49.248-40.384 89.312-89.952 89.312l-569.536-1.984c-172.576-0.544-312.544-126.016-312.064-279.648l0.32-82.432c0.512-159.744 146.784-299.904 312.992-299.904l570.432 2.016c49.472 0.192 89.568 40.512 89.376 89.92l-0.192 54.848c15.68 13.536 28.192 38.464 37.312 74.4 9.152 36.128 13.888 78.912 13.76 123.68zM969.984 347.392c-9.664-38.144-21.536-52.48-26.464-54.752l-12.16-5.568 0.256-79.264c0.096-26.528-21.44-48.16-48.032-48.256l-569.408-2.016-0.864-20.768v20.768c-144.16 0-271.008 120.8-271.488 258.528l-0.32 82.432c-0.448 146.464 140.16 237.6 270.688 238.016l569.856 1.952c26.336 0 47.872-21.536 48-47.968l0.192-55.712 12.128-5.504c6.208-2.848 20.736-21.664 31.136-72.512 5.824-29.536 8.928-62.72 8.992-95.968 0.096-41.408-4.224-80.608-12.512-113.408z" />
<glyph unicode="&#xe607;" d="M670.24 490.752c-14.944 72.768-79.136 128.32-158.176 128.32-62.016 0-115.488-34.24-141.152-85.504-66.272-8.576-115.456-62.016-115.456-128.32 0-70.592 57.728-128.32 128.32-128.32h277.888c59.936 0 106.912 47.104 106.912 106.912-0.032 55.648-44.896 102.624-98.336 106.912v0zM554.752 426.656v-85.504h-85.504v85.504h-64.096l106.912 106.912 106.912-106.912h-64.224zM1024 460.928c-0.032 35.872-3.392 71.808-9.792 104.032-6.848 33.408-19.552 74.496-42.56 94.272l-0.096 31.424c-0.256 49.248-40.384 89.312-89.92 89.312l-569.568-1.92c-172.576-0.576-312.544-126.048-312.064-279.68l0.32-82.432c0.544-159.776 146.784-299.904 312.992-299.904l570.432 1.984c49.472 0.192 89.568 40.576 89.376 89.952l-0.192 54.848c15.68 13.536 28.192 38.464 37.312 74.4 9.12 36.16 13.888 78.912 13.76 123.712zM969.984 347.392c-9.664-38.112-21.536-52.448-26.464-54.72l-12.16-5.568 0.256-79.264c0.096-26.528-21.44-48.16-48.032-48.288l-569.408-2.016-0.864-20.768v20.768c-144.16 0-271.008 120.8-271.488 258.528l-0.32 82.432c-0.448 146.496 140.16 237.6 270.688 238.016l569.856 1.92c26.336 0 47.872-21.536 48-47.968l0.192-55.68 12.16-5.504c6.208-2.848 20.736-21.664 31.136-72.544 5.824-29.504 8.928-62.656 8.992-95.936 0.064-41.376-4.256-80.576-12.544-113.408z" />
<glyph unicode="&#xe608;" d="M769.28 495.424c-7.072 7.84-83.328 69.824-96.96 73.824-5.92 1.728-11.904 2.784-18.048 3.264-28.512 2.080-59.936-6.848-79.744-28.192-1.728-1.856-2.72-2.912-2.72-2.912s0.736 1.248 2.016 3.456c6.112 10.304 15.008 19.264 24.544 26.4 4.384 3.296 9.056 6.24 13.92 8.832 1.344 0.704 13.728 7.392 14.56 6.528l-6.752 7.136c-10.88 10.88-22.656 20.256-38.656 20.256-19.872 0-36.832-12.32-43.744-29.728-5.856 4.352-15.168 7.168-25.664 7.168s-19.808-2.816-25.664-7.168c-6.912 17.408-23.872 29.728-43.744 29.728-16.032 0-27.776-9.376-38.656-20.256l-6.752-7.136c0.832 0.864 13.216-5.824 14.56-6.528 4.864-2.56 9.504-5.536 13.888-8.832 9.536-7.168 18.432-16.096 24.544-26.4l2.048-3.456c0 0-0.992 1.056-2.72 2.912-19.808 21.344-51.264 30.272-79.744 28.192-6.176-0.448-12.128-1.536-18.048-3.264-13.632-4-89.888-65.984-96.96-73.824-20.448-22.656-32.928-52.672-32.928-85.632 0-70.592 57.216-127.776 127.776-127.776 64.576 0 117.92 47.872 126.56 110.080 10.048-7.328 22.464-11.648 35.84-11.648 13.408 0 25.792 4.32 35.84 11.648 8.64-62.176 61.984-110.080 126.56-110.080 70.592 0 127.776 57.216 127.776 127.776 0 32.96-12.48 62.976-32.928 85.632v0zM346.752 329.568c-42.56 0-77.056 34.496-77.056 77.056s34.496 77.056 77.056 77.056c42.56 0 77.056-34.496 77.056-77.056s-34.496-77.056-77.056-77.056v0zM512 413.856c-11.232 0-20.32 9.088-20.32 20.32s9.088 20.32 20.32 20.32c11.232 0 20.32-9.088 20.32-20.32s-9.088-20.32-20.32-20.32v0zM677.248 329.568c-42.56 0-77.056 34.496-77.056 77.056s34.496 77.056 77.056 77.056c42.56 0 77.056-34.496 77.056-77.056s-34.496-77.056-77.056-77.056v0zM1024 460.928c-0.032 35.872-3.392 71.808-9.792 104.032-6.816 33.408-19.552 74.496-42.56 94.272l-0.096 31.424c-0.256 49.248-40.416 89.312-89.92 89.312l-569.568-1.92c-172.576-0.576-312.544-126.048-312.064-279.68l0.32-82.432c0.512-159.776 146.784-299.904 312.992-299.904l570.432 1.984c49.472 0.192 89.568 40.576 89.376 89.952l-0.192 54.848c15.68 13.536 28.192 38.464 37.312 74.4 9.12 36.16 13.888 78.912 13.76 123.712zM969.984 347.392c-9.664-38.112-21.536-52.448-26.464-54.72l-12.16-5.568 0.256-79.264c0.096-26.528-21.44-48.16-48.032-48.288l-569.408-2.016-0.864-20.768v20.768c-144.16 0-271.008 120.8-271.488 258.528l-0.32 82.432c-0.448 146.496 140.16 237.6 270.688 238.016l569.856 1.92c26.336 0 47.872-21.536 48-47.968l0.192-55.68 12.128-5.504c6.24-2.848 20.736-21.664 31.136-72.544 5.824-29.504 8.928-62.656 8.992-95.936 0.096-41.376-4.224-80.576-12.512-113.408z" />
<glyph unicode="&#xe609;" d="M759.744 459.136c-1.024 1.312-25.888 32.512-68.512 63.808-56.96 41.824-118.944 63.968-179.232 63.968s-122.272-22.112-179.232-63.968c-42.624-31.328-67.488-62.496-68.512-63.808l-8.8-11.136 8.8-11.136c1.024-1.312 25.888-32.512 68.512-63.808 56.96-41.856 118.944-63.968 179.232-63.968s122.272 22.112 179.232 63.968c42.624 31.296 67.488 62.496 68.512 63.808l8.8 11.136-8.8 11.136zM512 350.688c-53.664 0-97.344 43.648-97.344 97.312 0 8.416 1.088 16.576 3.104 24.352l-22.208 3.744c-2.176-9.024-3.328-18.432-3.328-28.096 0-34.656 14.816-65.92 38.432-87.84-30.4 11.232-56.256 26.976-75.744 41.248-24.16 17.664-42.272 35.52-52.608 46.592 10.336 11.104 28.448 28.928 52.608 46.592 19.52 14.24 45.344 29.984 75.744 41.248l14.912-16.8c17.408 16.32 40.8 26.304 66.464 26.304 53.664 0 97.312-43.648 97.312-97.312s-43.68-97.344-97.344-97.344v0zM669.12 401.408c-19.52-14.24-45.344-30.016-75.744-41.248 23.616 21.888 38.432 53.152 38.432 87.84 0 34.656-14.816 65.92-38.432 87.84 30.4-11.232 56.256-26.976 75.744-41.248 24.16-17.664 42.272-35.52 52.608-46.592-10.336-11.104-28.448-28.928-52.608-46.592v0zM433.344 472.032c-2.304-7.616-3.584-15.68-3.584-24.032 0-45.408 36.832-82.208 82.24-82.208s82.208 36.8 82.208 82.208c0 45.408-36.832 82.208-82.208 82.208-22.112 0-42.176-8.736-56.96-22.944l40.544-45.728-62.24 10.496zM1024 460.896c-0.032 35.872-3.392 71.808-9.792 104.064-6.848 33.408-19.552 74.496-42.56 94.272l-0.096 31.456c-0.256 49.248-40.384 89.312-89.92 89.312l-569.568-1.952c-172.576-0.576-312.544-126.016-312.064-279.68l0.32-82.432c0.512-159.744 146.816-299.904 313.024-299.904l570.4 2.016c23.968 0.096 46.432 9.472 63.328 26.432 16.896 16.992 26.144 39.52 26.048 63.488l-0.192 54.88c15.68 13.536 28.192 38.464 37.312 74.4 9.152 36.064 13.888 78.88 13.76 123.648zM969.984 347.392c-9.664-38.112-21.536-52.448-26.464-54.72l-12.16-5.568 0.256-79.296c0.032-12.864-4.896-24.96-13.952-34.048-9.056-9.12-21.152-14.176-34.048-14.208l-569.44-2.016-0.832-20.768v20.768c-144.192 0-271.040 120.832-271.52 258.528l-0.32 82.432c-0.448 146.464 140.16 237.6 270.688 238.048l569.856 1.92c26.336 0 47.872-21.536 48-47.968l0.192-55.712 12.128-5.504c6.208-2.848 20.736-21.664 31.136-72.512 5.824-29.536 8.928-62.72 8.992-95.968 0.096-41.376-4.192-80.608-12.512-113.408z" />
</font></defs></svg>